verif/run/results/log_comp8/fifo_tb.vcd
$date
    Mar  5, 2026  10:09:42
$end
$version
    TOOL:	xmsim	24.09-s001
$end
$timescale
    1 ps
$end

$scope module tb_top $end
$var parameter 32 !    FIFO_DEPTH $end
$var parameter 32 "    FIFO_WIDTH $end
$var parameter 32 #    NUM_TXNS $end
$var reg       1 $    wrclk $end
$var reg       1 %    rdclk $end
$var real     64 &    wrclk_half $end
$var real     64 '    rdclk_half $end

$scope module dut_if $end
$var parameter 32 (    FIFO_WIDTH $end
$var wire      1 )    wrclk  $end
$var wire      1 *    rdclk  $end
$var reg       1 +    wrst_n $end
$var reg       1 ,    wr_en $end
$var reg      64 -    data_in [63:0] $end
$var reg       1 .    fifo_full $end
$var reg       1 /    rrst_n $end
$var reg       1 0    rd_en $end
$var reg      64 1    data_out [63:0] $end
$var reg       1 2    fifo_empty $end
$upscope $end


$scope module dut $end
$var parameter 32 3    FIFO_DEPTH $end
$var parameter 32 4    FIFO_WIDTH $end
$var wire      1 )    wrclk  $end
$var wire      1 5    wrst_n  $end
$var wire      1 *    rdclk  $end
$var wire      1 6    rrst_n  $end
$var wire      1 7    wr_en  $end
$var wire      1 8    rd_en  $end
$var wire     64 9    data_in [63:0] $end
$var reg      64 :    data_out [63:0] $end
$var reg       1 ;    fifo_full $end
$var reg       1 <    fifo_empty $end
$var parameter 32 =    PTR_WIDTH $end
$var reg       4 >    g_wptr_sync [3:0] $end
$var reg       4 ?    g_rptr_sync [3:0] $end
$var reg       4 @    g_wptr [3:0] $end
$var reg       4 A    g_rptr [3:0] $end
$var reg       4 B    b_wptr [3:0] $end
$var reg       4 C    b_rptr [3:0] $end
$var wire      3 D    waddr [2:0] $end
$var wire      3 E    raddr [2:0] $end

$scope module sync_wptr $end
$var parameter 32 F    WIDTH $end
$var wire      1 *    clk  $end
$var wire      1 6    rst_n  $end
$var wire      4 G    d_in [3:0] $end
$var reg       4 H    d_out [3:0] $end
$var reg       4 I    q1 [3:0] $end
$upscope $end


$scope module sync_rptr $end
$var parameter 32 J    WIDTH $end
$var wire      1 )    clk  $end
$var wire      1 5    rst_n  $end
$var wire      4 K    d_in [3:0] $end
$var reg       4 L    d_out [3:0] $end
$var reg       4 M    q1 [3:0] $end
$upscope $end


$scope module wrptr_h $end
$var parameter 32 N    PTR_WIDTH $end
$var wire      1 )    wrclk  $end
$var wire      1 5    wrst_n  $end
$var wire      1 7    wr_en  $end
$var wire      4 O    g_rptr_sync [3:0] $end
$var reg       4 P    b_wptr [3:0] $end
$var reg       4 Q    g_wptr [3:0] $end
$var reg       1 R    fifo_full $end
$var reg       4 S    b_wptr_next [3:0] $end
$var reg       4 T    g_wptr_next [3:0] $end
$var reg       1 U    wrap_around $end
$var wire      1 V    wfull  $end
$upscope $end


$scope module rdptr_h $end
$var parameter 32 W    PTR_WIDTH $end
$var wire      1 *    rdclk  $end
$var wire      1 6    rrst_n  $end
$var wire      1 8    rd_en  $end
$var wire      4 X    g_wptr_sync [3:0] $end
$var reg       4 Y    b_rptr [3:0] $end
$var reg       4 Z    g_rptr [3:0] $end
$var reg       1 [    fifo_empty $end
$var reg       4 \    b_rptr_next [3:0] $end
$var reg       4 ]    g_rptr_next [3:0] $end
$var wire      1 ^    rempty  $end
$upscope $end


$scope module fifom $end
$var parameter 32 _    FIFO_DEPTH $end
$var parameter 32 `    FIFO_WIDTH $end
$var parameter 32 a    PTR_WIDTH $end
$var wire      1 )    wrclk  $end
$var wire      1 7    wr_en  $end
$var wire      1 *    rdclk  $end
$var wire      1 8    rd_en  $end
$var wire      4 b    b_wptr [3:0] $end
$var wire      4 c    b_rptr [3:0] $end
$var wire     64 9    data_in [63:0] $end
$var wire      1 d    fifo_full  $end
$var wire      1 e    fifo_empty  $end
$var reg      64 f    data_out [63:0] $end
$var reg      64 g    fifo[0] [63:0] $end
$var reg      64 h    fifo[1] [63:0] $end
$var reg      64 i    fifo[2] [63:0] $end
$var reg      64 j    fifo[3] [63:0] $end
$var reg      64 k    fifo[4] [63:0] $end
$var reg      64 l    fifo[5] [63:0] $end
$var reg      64 m    fifo[6] [63:0] $end
$var reg      64 n    fifo[7] [63:0] $end
$upscope $end

$upscope $end

$upscope $end

$enddefinitions $end
$dumpvars
b11 a
b1000000 `
b1000 _
b11 W
b11 N
b11 J
b11 F
b11 =
b1000000 4
b1000 3
b1000000 (
b10100 #
b1000000 "
b1000 !
0$
0%
r5 &
r6.5 '
0)
0*
0+
0,
b0 -
0.
0/
00
bx 1
12
05
06
07
08
b0 9
bx :
0;
1<
bx >
bx ?
b0 @
b0 A
b0 B
b0 C
bz D
bz E
b0 G
bx H
bx I
b0 K
bx L
bx M
bx O
b0 P
b0 Q
0R
b0 S
b0 T
xU
xV
bx X
b0 Y
b0 Z
1[
b0 \
b0 ]
x^
b0 b
b0 c
0d
1e
bx f
bx g
bx h
bx i
bx j
bx k
bx l
bx m
bx n
$end
#5000
1$
1)
b0 M
b0 L
b0 ?
b0 O
0V
#6500
1%
1*
b0 I
b0 H
b0 >
b0 X
1^
#10000
0$
0)
#13000
0%
0*
#15000
1$
1)
#19500
1%
1*
#20000
0$
0)
#25000
1$
1)
#26000
0%
0*
#30000
0$
0)
#32500
1%
1*
#35000
1$
1)
#39000
0%
0*
#40000
0$
0)
#45000
1$
1)
#45500
1%
1*
#50000
0$
0)
#52000
0%
0*
#55000
1$
1)
#56000
1+
1/
16
15
#58500
1%
1*
#60000
0$
0)
#65000
0%
1$
1)
0*
#70000
0$
0)
#71500
1%
1*
#75000
1$
1)
#76000
1,
b1100011101110110111110001111101011011000111011011011111111100000 -
b1100011101110110111110001111101011011000111011011011111111100000 9
17
b1 S
b1 T
#78000
0%
0*
#80000
0$
0)
#84500
1%
1*
#85000
1$
1)
b1 P
b1 Q
b1100011101110110111110001111101011011000111011011011111111100000 g
b10 S
b11 T
b1 @
b1 B
b1 b
b1 G
#86000
b1011100111101101011101001000001010111010011111110101000101010110 -
b1011100111101101011101001000001010111010011111110101000101010110 9
#90000
0$
0)
#91000
0%
0*
#95000
1$
1)
b10 P
b11 Q
b1011100111101101011101001000001010111010011111110101000101010110 h
b11 S
b10 T
b11 @
b10 B
b10 b
b11 G
#96000
b111010001001101000111000001111100000001001110011010001110101010 -
b111010001001101000111000001111100000001001110011010001110101010 9
#97500
1%
1*
b11 I
#100000
0$
0)
#104000
0%
0*
#105000
1$
1)
b11 P
b10 Q
b111010001001101000111000001111100000001001110011010001110101010 i
b100 S
b110 T
b10 @
b11 B
b11 b
b10 G
#106000
b101101111101111000100100100100011111001111101100101011111101010 -
b101101111101111000100100100100011111001111101100101011111101010 9
#110000
0$
0)
#110500
1%
1*
b10 I
b11 H
b11 >
b11 X
0^
#115000
1$
1)
b100 P
b110 Q
b101101111101111000100100100100011111001111101100101011111101010 j
b101 S
b111 T
b110 @
b100 B
b100 b
b110 G
#116000
0,
b0 -
b0 9
07
b100 S
b110 T
#117000
0%
0*
#120000
0$
0)
#123500
1%
1*
0[
b110 I
b10 H
b10 >
0<
0e
b10 X
02
#125000
1$
1)
#130000
0%
0$
0)
0*
#135000
1$
1)
#136500
1%
1*
b110 H
b110 >
b110 X
