verif/run/fifo_tb.vcd
$date
    Feb 25, 2026  14:14:18
$end
$version
    TOOL:	xmsim	24.09-s001
$end
$timescale
    1 ps
$end

$scope module tb_top $end
$var parameter 32 !    FIFO_DEPTH $end
$var parameter 32 "    FIFO_WIDTH $end
$var parameter 32 #    NUM_TXNS $end
$var reg       1 $    wrclk $end
$var reg       1 %    rdclk $end

$scope module dut_if $end
$var parameter 32 &    FIFO_WIDTH $end
$var wire      1 '    wrclk  $end
$var wire      1 (    rdclk  $end
$var reg       1 )    wrst_n $end
$var reg       1 *    wr_en $end
$var reg      64 +    data_in [63:0] $end
$var reg       1 ,    fifo_full $end
$var reg       1 -    rrst_n $end
$var reg       1 .    rd_en $end
$var reg      64 /    data_out [63:0] $end
$var reg       1 0    fifo_empty $end
$upscope $end


$scope module dut $end
$var parameter 32 1    FIFO_DEPTH $end
$var parameter 32 2    FIFO_WIDTH $end
$var wire      1 '    wrclk  $end
$var wire      1 3    wrst_n  $end
$var wire      1 (    rdclk  $end
$var wire      1 4    rrst_n  $end
$var wire      1 5    wr_en  $end
$var wire      1 6    rd_en  $end
$var wire     64 7    data_in [63:0] $end
$var reg      64 8    data_out [63:0] $end
$var reg       1 9    fifo_full $end
$var reg       1 :    fifo_empty $end
$var parameter 32 ;    PTR_WIDTH $end
$var reg       4 <    g_wptr_sync [3:0] $end
$var reg       4 =    g_rptr_sync [3:0] $end
$var reg       4 >    g_wptr [3:0] $end
$var reg       4 ?    g_rptr [3:0] $end
$var reg       4 @    b_wptr [3:0] $end
$var reg       4 A    b_rptr [3:0] $end
$var wire      3 B    waddr [2:0] $end
$var wire      3 C    raddr [2:0] $end

$scope module sync_wptr $end
$var parameter 32 D    WIDTH $end
$var wire      1 (    clk  $end
$var wire      1 4    rst_n  $end
$var wire      4 E    d_in [3:0] $end
$var reg       4 F    d_out [3:0] $end
$var reg       4 G    q1 [3:0] $end
$upscope $end


$scope module sync_rptr $end
$var parameter 32 H    WIDTH $end
$var wire      1 '    clk  $end
$var wire      1 3    rst_n  $end
$var wire      4 I    d_in [3:0] $end
$var reg       4 J    d_out [3:0] $end
$var reg       4 K    q1 [3:0] $end
$upscope $end


$scope module wrptr_h $end
$var parameter 32 L    PTR_WIDTH $end
$var wire      1 '    wrclk  $end
$var wire      1 3    wrst_n  $end
$var wire      1 5    wr_en  $end
$var wire      4 M    g_rptr_sync [3:0] $end
$var reg       4 N    b_wptr [3:0] $end
$var reg       4 O    g_wptr [3:0] $end
$var reg       1 P    fifo_full $end
$var reg       4 Q    b_wptr_next [3:0] $end
$var reg       4 R    g_wptr_next [3:0] $end
$var reg       1 S    wrap_around $end
$var wire      1 T    wfull  $end
$upscope $end


$scope module rdptr_h $end
$var parameter 32 U    PTR_WIDTH $end
$var wire      1 (    rdclk  $end
$var wire      1 4    rrst_n  $end
$var wire      1 6    rd_en  $end
$var wire      4 V    g_wptr_sync [3:0] $end
$var reg       4 W    b_rptr [3:0] $end
$var reg       4 X    g_rptr [3:0] $end
$var reg       1 Y    fifo_empty $end
$var reg       4 Z    b_rptr_next [3:0] $end
$var reg       4 [    g_rptr_next [3:0] $end
$var wire      1 \    rempty  $end
$upscope $end


$scope module fifom $end
$var parameter 32 ]    FIFO_DEPTH $end
$var parameter 32 ^    FIFO_WIDTH $end
$var parameter 32 _    PTR_WIDTH $end
$var wire      1 '    wrclk  $end
$var wire      1 5    wr_en  $end
$var wire      1 (    rdclk  $end
$var wire      1 6    rd_en  $end
$var wire      4 `    b_wptr [3:0] $end
$var wire      4 a    b_rptr [3:0] $end
$var wire     64 7    data_in [63:0] $end
$var wire      1 b    fifo_full  $end
$var wire      1 c    fifo_empty  $end
$var reg      64 d    data_out [63:0] $end
$var reg      64 e    fifo[0] [63:0] $end
$var reg      64 f    fifo[1] [63:0] $end
$var reg      64 g    fifo[2] [63:0] $end
$var reg      64 h    fifo[3] [63:0] $end
$var reg      64 i    fifo[4] [63:0] $end
$var reg      64 j    fifo[5] [63:0] $end
$var reg      64 k    fifo[6] [63:0] $end
$var reg      64 l    fifo[7] [63:0] $end
$upscope $end

$upscope $end

$upscope $end

$enddefinitions $end
$dumpvars
b11 _
b1000000 ^
b1000 ]
b11 U
b11 L
b11 H
b11 D
b11 ;
b1000000 2
b1000 1
b1000000 &
b10100 #
b1000000 "
b1000 !
0$
0%
0'
0(
0)
0*
b0 +
0,
0-
0.
bx /
10
03
04
05
06
b0 7
bx 8
09
1:
bx <
bx =
b0 >
b0 ?
b0 @
b0 A
bz B
bz C
b0 E
bx F
bx G
b0 I
bx J
bx K
bx M
b0 N
b0 O
0P
b0 Q
b0 R
xS
xT
bx V
b0 W
b0 X
1Y
b0 Z
b0 [
x\
b0 `
b0 a
0b
1c
bx d
bx e
bx f
bx g
bx h
bx i
bx j
bx k
bx l
$end
#5000
1$
1'
b0 K
b0 J
b0 =
b0 M
0T
#6500
1%
1(
b0 G
b0 F
b0 <
b0 V
1\
#10000
0$
0'
#13000
0%
0(
#15000
1$
1'
#19500
1%
1(
#20000
0$
0'
#25000
1$
1'
#26000
0%
0(
#30000
0$
0'
#32500
1%
1(
#35000
1$
1'
#39000
0%
0(
#40000
0$
0'
#45000
1$
1'
#45500
1%
1(
#50000
0$
0'
#52000
0%
0(
#55000
1$
1'
#56000
1)
1-
14
13
#58500
1%
1(
#60000
0$
0'
#65000
0%
1$
1'
0(
#70000
0$
0'
#71500
1%
1(
#75000
1$
1'
#76000
1*
b1101111011001100010100011100101110000111111001110001000110011010 +
b1101111011001100010100011100101110000111111001110001000110011010 7
15
b1 Q
b1 R
#78000
0%
0(
#80000
0$
0'
#84500
1%
1(
#85000
1$
1'
b1 N
b1 O
b1101111011001100010100011100101110000111111001110001000110011010 e
b10 Q
b11 R
b1 >
b1 @
b1 `
b1 E
#86000
0*
b0 +
b0 7
05
b1 Q
b1 R
#90000
0$
0'
#91000
0%
0(
#95000
1$
1'
#96000
1*
b110011101100011010110000000100011000101111001010111001011001 +
b110011101100011010110000000100011000101111001010111001011001 7
15
b10 Q
b11 R
#97500
1%
1(
b1 G
#100000
0$
0'
#104000
0%
0(
#105000
1$
1'
b10 N
b11 O
b110011101100011010110000000100011000101111001010111001011001 f
b11 Q
b10 R
b11 >
b10 @
b10 `
b11 E
#106000
0*
b0 +
b0 7
05
b10 Q
b11 R
#110000
0$
0'
#110500
1%
1(
b11 G
b1 F
b1 <
b1 V
0\
#115000
1$
1'
#116000
1*
b1100000001000000000101100011100101101100110110011011011000111000 +
b1100000001000000000101100011100101101100110110011011011000111000 7
15
b11 Q
b10 R
#117000
0%
0(
#120000
0$
0'
#123500
1%
1(
0Y
b11 F
b11 <
0:
0c
b11 V
00
#125000
1$
1'
b11 N
b10 O
b1100000001000000000101100011100101101100110110011011011000111000 g
b100 Q
b110 R
b10 >
b11 @
b11 `
b10 E
#126000
0*
b0 +
b0 7
05
b11 Q
b10 R
#130000
0%
0$
0'
0(
#135000
1$
1'
#136000
1*
b1101110010111000111101000111100111111111011101111000010110100100 +
b1101110010111000111101000111100111111111011101111000010110100100 7
15
b100 Q
b110 R
#136500
1%
1(
b10 G
#140000
0$
0'
#143000
0%
0(
#145000
1$
1'
b100 N
b110 O
b1101110010111000111101000111100111111111011101111000010110100100 h
b101 Q
b111 R
b110 >
b100 @
b100 `
b110 E
#146000
0*
b0 +
b0 7
05
b100 Q
b110 R
#149500
1%
1(
b110 G
b10 F
b10 <
b10 V
#150000
0$
0'
#150500
1.
16
b1 Z
b1 [
#155000
1$
1'
#156000
0%
1*
b110000001010100111101010011001111010000101100011010011011110101 +
b110000001010100111101010011001111010000101100011010011011110101 7
15
0(
b101 Q
b111 R
#160000
0$
0'
#162500
1%
1(
b1 W
b1 X
b1101111011001100010100011100101110000111111001110001000110011010 d
b110 F
b10 Z
b11 [
b110 <
b1101111011001100010100011100101110000111111001110001000110011010 8
b1 ?
b1 A
b1 a
b1 I
b110 V
b1101111011001100010100011100101110000111111001110001000110011010 /
#163500
0.
06
b1 Z
b1 [
#165000
1$
1'
b101 N
b111 O
b110000001010100111101010011001111010000101100011010011011110101 i
b1 K
b110 Q
b101 R
b111 >
b101 @
b101 `
b111 E
#166000
0*
b0 +
b0 7
05
b101 Q
b111 R
#169000
0%
0(
#170000
0$
0'
#175000
1$
1'
b1 J
b1 =
b1 M
#175500
1%
1(
b111 G
#176000
1*
b1111100001101001110101001011010101000101111110101101100001000000 +
b1111100001101001110101001011010101000101111110101101100001000000 7
15
b110 Q
b101 R
#176500
1.
16
b10 Z
b11 [
#180000
0$
0'
#182000
0%
0(
#185000
1$
1'
b110 N
b101 O
b1111100001101001110101001011010101000101111110101101100001000000 j
b111 Q
b100 R
b101 >
b110 @
b110 `
b101 E
#186000
0*
b0 +
b0 7
05
b110 Q
b101 R
#188500
1%
1(
b10 W
b11 X
b110011101100011010110000000100011000101111001010111001011001 d
b101 G
b111 F
b11 Z
b10 [
b111 <
b110011101100011010110000000100011000101111001010111001011001 8
b11 ?
b10 A
b10 a
b11 I
b111 V
b110011101100011010110000000100011000101111001010111001011001 /
#189500
0.
06
b10 Z
b11 [
#190000
0$
0'
#195000
0%
1$
1'
0(
b11 K
#196000
1*
b100011011111110111100101010010000000000011000110010111111001101 +
b100011011111110111100101010010000000000011000110010111111001101 7
15
b111 Q
b100 R
#200000
0$
0'
#201500
1%
1(
b101 F
b101 <
b101 V
#202500
1.
16
b11 Z
b10 [
#205000
1$
1'
b111 N
b100 O
b100011011111110111100101010010000000000011000110010111111001101 k
b11 J
b1000 Q
b1100 R
b11 =
b100 >
b111 @
b111 `
b100 E
b11 M
#206000
0*
b0 +
b0 7
05
b111 Q
b100 R
#208000
0%
0(
#210000
0$
0'
#214500
1%
1(
b11 W
b10 X
b1100000001000000000101100011100101101100110110011011011000111000 d
b100 G
b100 Z
b110 [
b1100000001000000000101100011100101101100110110011011011000111000 8
b10 ?
b11 A
b11 a
b10 I
b1100000001000000000101100011100101101100110110011011011000111000 /
#215000
1$
1'
b10 K
#215500
0.
06
b11 Z
b10 [
#216000
1*
b1110100100000011001010100001111110000000001111010010001100001011 +
b1110100100000011001010100001111110000000001111010010001100001011 7
15
b1000 Q
b1100 R
#220000
0$
0'
#221000
0%
0(
#225000
1$
1'
b1000 N
b1100 O
b1110100100000011001010100001111110000000001111010010001100001011 l
b10 J
b1001 Q
b1101 R
b10 =
b1100 >
b1000 @
b1000 `
b1100 E
b10 M
#226000
0*
b0 +
b0 7
05
b1000 Q
b1100 R
#227500
1%
1(
b1100 G
b100 F
b100 <
b100 V
#228500
1.
16
b100 Z
b110 [
#230000
0$
0'
#234000
0%
0(
#235000
1$
1'
#236000
1*
b111100101110110110000111011001111111010111010111100110001011001 +
b111100101110110110000111011001111111010111010111100110001011001 7
15
b1001 Q
b1101 R
#240000
0$
0'
#240500
1%
1(
b100 W
b110 X
b1101110010111000111101000111100111111111011101111000010110100100 d
b1100 F
b101 Z
b111 [
b1100 <
b1101110010111000111101000111100111111111011101111000010110100100 8
b110 ?
b100 A
b100 a
b110 I
b1100 V
b1101110010111000111101000111100111111111011101111000010110100100 /
#241500
0.
06
b100 Z
b110 [
#245000
1$
1'
b1001 N
b1101 O
b111100101110110110000111011001111111010111010111100110001011001 e
b110 K
b1010 Q
b1111 R
b1101 >
b1001 @
b1001 `
b1101 E
#246000
0*
b0 +
b0 7
05
b1001 Q
b1101 R
#247000
0%
0(
#250000
0$
0'
#253500
1%
1(
b1101 G
#254500
1.
16
b101 Z
b111 [
#255000
1$
1'
b110 J
b110 =
b110 M
#256000
1*
b10110010100110110010011000100010111110011011100111100011010100 +
b10110010100110110010011000100010111110011011100111100011010100 7
15
b1010 Q
b1111 R
#260000
0%
0$
0'
0(
#265000
1$
1'
b1010 N
b1111 O
b10110010100110110010011000100010111110011011100111100011010100 f
b1011 Q
b1110 R
b1111 >
b1010 @
b1010 `
b1111 E
#266000
0*
b0 +
b0 7
05
b1010 Q
b1111 R
#266500
1%
1(
b101 W
b111 X
b110000001010100111101010011001111010000101100011010011011110101 d
b1111 G
b1101 F
b110 Z
b101 [
b1101 <
b110000001010100111101010011001111010000101100011010011011110101 8
b111 ?
b101 A
b101 a
b111 I
b1101 V
b110000001010100111101010011001111010000101100011010011011110101 /
#267500
0.
06
b101 Z
b111 [
#270000
0$
0'
#273000
0%
0(
#275000
1$
1'
b111 K
#276000
1*
b101011111011011001001111000001101000000010101001001010010011000 +
b101011111011011001001111000001101000000010101001001010010011000 7
15
b1011 Q
b1110 R
#279500
1%
1(
b1111 F
b1111 <
b1111 V
#280000
0$
0'
#280500
1.
16
b110 Z
b101 [
#285000
1$
1'
b1011 N
b1110 O
b101011111011011001001111000001101000000010101001001010010011000 g
b111 J
b1100 Q
b1010 R
1T
b111 =
b1110 >
b1011 @
b1011 `
b1110 E
b111 M
0T
#286000
0%
0*
b0 +
b0 7
05
0(
b1011 Q
b1110 R
#290000
0$
0'
#292500
1%
1(
b110 W
b101 X
b1111100001101001110101001011010101000101111110101101100001000000 d
b1110 G
b111 Z
b100 [
b1111100001101001110101001011010101000101111110101101100001000000 8
b101 ?
b110 A
b110 a
b101 I
b1111100001101001110101001011010101000101111110101101100001000000 /
#293500
0.
06
b110 Z
b101 [
#295000
1$
1'
b101 K
#296000
1*
b1101111101100010111000001010000101011011001000111101011011110000 +
b1101111101100010111000001010000101011011001000111101011011110000 7
15
b1100 Q
b1010 R
#299000
0%
0(
#300000
0$
0'
#305000
1$
1'
b1100 N
b1010 O
b1101111101100010111000001010000101011011001000111101011011110000 h
b101 J
b1101 Q
b1011 R
1T
b101 =
b1010 >
b1100 @
b1100 `
b1010 E
b101 M
0T
#305500
1%
1(
b1010 G
b1110 F
b1110 <
b1110 V
#306000
0*
b0 +
b0 7
05
b1100 Q
b1010 R
#306500
1.
16
b111 Z
b100 [
#310000
0$
0'
#312000
0%
0(
#315000
1$
1'
#316000
1*
b110000001010011110001000000001100010010110010010010110011000110 +
b110000001010011110001000000001100010010110010010010110011000110 7
15
b1101 Q
b1011 R
#318500
1%
1(
b111 W
b100 X
b100011011111110111100101010010000000000011000110010111111001101 d
b1010 F
b1000 Z
b1100 [
b1010 <
b100011011111110111100101010010000000000011000110010111111001101 8
b100 ?
b111 A
b111 a
b100 I
b1010 V
b100011011111110111100101010010000000000011000110010111111001101 /
#319500
0.
06
b111 Z
b100 [
#320000
0$
0'
#325000
0%
1$
1'
0(
b1101 N
b1011 O
b110000001010011110001000000001100010010110010010010110011000110 i
b100 K
b1110 Q
b1001 R
1T
b1011 >
b1101 @
b1101 `
b1011 E
#326000
0*
b0 +
b0 7
05
b1101 Q
b1011 R
0T
#330000
0$
0'
#331500
1%
1(
b1011 G
#332500
1.
16
b1000 Z
b1100 [
#335000
1$
1'
b100 J
b100 =
b100 M
#336000
1*
b1000101010001111111011010101110111000001101001000101001001010011 +
b1000101010001111111011010101110111000001101001000101001001010011 7
15
b1110 Q
b1001 R
#338000
0%
0(
#340000
0$
0'
#344500
1%
1(
b1000 W
b1100 X
b1110100100000011001010100001111110000000001111010010001100001011 d
b1011 F
b1001 Z
b1101 [
b1011 <
b1110100100000011001010100001111110000000001111010010001100001011 8
b1100 ?
b1000 A
b1000 a
b1100 I
b1011 V
b1110100100000011001010100001111110000000001111010010001100001011 /
#345000
1$
1'
b1110 N
b1001 O
b1000101010001111111011010101110111000001101001000101001001010011 j
b1100 K
b1111 Q
b1000 R
1T
b1001 >
b1110 @
b1110 `
b1001 E
#345500
0.
06
b1000 Z
b1100 [
#346000
0*
b0 +
b0 7
05
b1110 Q
b1001 R
0T
#350000
0$
0'
#351000
0%
0(
#355000
1$
1'
b1100 J
b1100 =
b1100 M
#356000
1*
b111010100011101001011111001011001000000110011010101110000000110 +
b111010100011101001011111001011001000000110011010101110000000110 7
15
b1111 Q
b1000 R
#357500
1%
1(
b1001 G
#358500
1.
16
b1001 Z
b1101 [
#360000
0$
0'
#364000
0%
0(
#365000
1$
1'
b1111 N
b1000 O
b111010100011101001011111001011001000000110011010101110000000110 k
b0 Q
b0 R
1T
b1000 >
b1111 @
b1111 `
b1000 E
#366000
0*
b0 +
b0 7
05
b1111 Q
b1000 R
0T
#370000
0$
0'
#370500
1%
1(
b1001 W
b1101 X
b111100101110110110000111011001111111010111010111100110001011001 d
b1000 G
b1001 F
b1010 Z
b1111 [
b1001 <
b111100101110110110000111011001111111010111010111100110001011001 8
b1101 ?
b1001 A
b1001 a
b1101 I
b1001 V
b111100101110110110000111011001111111010111010111100110001011001 /
#371500
0.
06
b1001 Z
b1101 [
#375000
1$
1'
b1101 K
#376000
1*
b1000111111010110111011010100001101110110100100000001111010101010 +
b1000111111010110111011010100001101110110100100000001111010101010 7
15
b0 Q
b0 R
1T
#377000
0%
0(
#380000
0$
0'
#383500
1%
1(
b1000 F
b1000 <
b1000 V
#384500
1.
16
b1010 Z
b1111 [
#385000
1$
1'
1P
b0 N
b0 O
b1000111111010110111011010100001101110110100100000001111010101010 l
b1101 J
b1101 =
b0 >
b0 @
19
1b
b0 `
b0 E
b1101 M
1,
0T
#386000
0*
b0 +
b0 7
05
#390000
0%
0$
0'
0(
#395000
1$
1'
0P
09
0b
0,
#396500
1%
1(
b1010 W
b1111 X
b10110010100110110010011000100010111110011011100111100011010100 d
b0 G
b1011 Z
b1110 [
b10110010100110110010011000100010111110011011100111100011010100 8
b1111 ?
b1010 A
b1010 a
b1111 I
b10110010100110110010011000100010111110011011100111100011010100 /
#397500
0.
06
b1010 Z
b1111 [
#400000
0$
0'
#403000
0%
0(
#405000
1$
1'
b1111 K
#409500
1%
1(
b0 F
b0 <
b0 V
#410000
0$
0'
#410500
1.
16
b1011 Z
b1110 [
#415000
1$
1'
b1111 J
b1111 =
b1111 M
#416000
0%
1*
b1000001000011110110011010100000100101100011001010100001011110100 +
b1000001000011110110011010100000100101100011001010100001011110100 7
15
0(
b1 Q
b1 R
#420000
0$
0'
#422500
1%
1(
b1011 W
b1110 X
b101011111011011001001111000001101000000010101001001010010011000 d
b1100 Z
b1010 [
b101011111011011001001111000001101000000010101001001010010011000 8
b1110 ?
b1011 A
b1011 a
b1110 I
b101011111011011001001111000001101000000010101001001010010011000 /
#423500
0.
06
b1011 Z
b1110 [
#425000
1$
1'
b1 N
b1 O
b1000001000011110110011010100000100101100011001010100001011110100 e
b1110 K
b10 Q
b11 R
1T
b1 >
b1 @
b1 `
b1 E
#426000
0*
b0 +
b0 7
05
b1 Q
b1 R
0T
#429000
0%
0(
#430000
0$
0'
#435000
1$
1'
b1110 J
b1110 =
b1110 M
#435500
1%
1(
b1 G
#436000
1*
b11010010000100101011010110101100111110001001110101110010000001 +
b11010010000100101011010110101100111110001001110101110010000001 7
15
b10 Q
b11 R
#436500
1.
16
b1100 Z
b1010 [
#440000
0$
0'
#442000
0%
0(
#445000
1$
1'
b10 N
b11 O
b11010010000100101011010110101100111110001001110101110010000001 f
b11 Q
b10 R
1T
b11 >
b10 @
b10 `
b11 E
#446000
0*
b0 +
b0 7
05
b10 Q
b11 R
0T
#448500
1%
1(
b1100 W
b1010 X
b1101111101100010111000001010000101011011001000111101011011110000 d
b11 G
b1 F
b1101 Z
b1011 [
b1 <
b1101111101100010111000001010000101011011001000111101011011110000 8
b1010 ?
b1100 A
b1100 a
b1010 I
b1 V
b1101111101100010111000001010000101011011001000111101011011110000 /
#449500
0.
06
b1100 Z
b1010 [
#450000
0$
0'
#455000
0%
1$
1'
0(
b1010 K
#456000
1*
b110100000100101010011100100111111110110011101010001001010011000 +
b110100000100101010011100100111111110110011101010001001010011000 7
15
b11 Q
b10 R
1T
#460000
0$
0'
#461500
1%
1(
b11 F
b11 <
b11 V
#462500
1.
16
b1101 Z
b1011 [
#465000
1$
1'
1P
b11 N
b10 O
b110100000100101010011100100111111110110011101010001001010011000 g
b1010 J
b1010 =
b10 >
b11 @
19
1b
b11 `
b10 E
b1010 M
1,
0T
#466000
0*
b0 +
b0 7
05
#468000
0%
0(
#470000
0$
0'
#474500
1%
1(
b1101 W
b1011 X
b110000001010011110001000000001100010010110010010010110011000110 d
b10 G
b1110 Z
b1001 [
b110000001010011110001000000001100010010110010010010110011000110 8
b1011 ?
b1101 A
b1101 a
b1011 I
b110000001010011110001000000001100010010110010010010110011000110 /
#475000
1$
1'
0P
b1011 K
09
0b
0,
#475500
0.
06
b1101 Z
b1011 [
#480000
0$
0'
#481000
0%
0(
#485000
1$
1'
b1011 J
b1011 =
b1011 M
#487500
1%
1(
b10 F
b10 <
b10 V
#488500
1.
16
b1110 Z
b1001 [
#490000
0$
0'
#494000
0%
0(
#495000
1$
1'
#496000
1*
b1110100101000111101010100011111110010110100110101000011101001001 +
b1110100101000111101010100011111110010110100110101000011101001001 7
15
b100 Q
b110 R
#500000
0$
0'
#500500
1%
1(
b1110 W
b1001 X
b1000101010001111111011010101110111000001101001000101001001010011 d
b1111 Z
b1000 [
b1000101010001111111011010101110111000001101001000101001001010011 8
b1001 ?
b1110 A
b1110 a
b1001 I
b1000101010001111111011010101110111000001101001000101001001010011 /
#501500
0.
06
b1110 Z
b1001 [
#505000
1$
1'
b100 N
b110 O
b1110100101000111101010100011111110010110100110101000011101001001 h
b1001 K
b101 Q
b111 R
1T
b110 >
b100 @
b100 `
b110 E
#506000
0*
b0 +
b0 7
05
b100 Q
b110 R
0T
#507000
0%
0(
#510000
0$
0'
#513500
1%
1(
b110 G
#514500
1.
16
b1111 Z
b1000 [
#515000
1$
1'
b1001 J
b1001 =
b1001 M
#520000
0%
0$
0'
0(
#525000
1$
1'
#526500
1%
1(
b1111 W
b1000 X
b111010100011101001011111001011001000000110011010101110000000110 d
b110 F
b0 Z
b0 [
b110 <
b111010100011101001011111001011001000000110011010101110000000110 8
b1000 ?
b1111 A
b1111 a
b1000 I
b110 V
b111010100011101001011111001011001000000110011010101110000000110 /
#527500
0.
06
b1111 Z
b1000 [
#530000
0$
0'
#533000
0%
0(
#535000
1$
1'
b1000 K
#539500
1%
1(
#540000
0$
0'
#540500
1.
16
b0 Z
b0 [
#545000
1$
1'
b1000 J
b1000 =
b1000 M
#546000
0%
0(
#550000
0$
0'
#552500
1%
1(
b0 W
b0 X
b1000111111010110111011010100001101110110100100000001111010101010 d
b1 Z
b1 [
b1000111111010110111011010100001101110110100100000001111010101010 8
b0 ?
b0 A
b0 a
b0 I
b1000111111010110111011010100001101110110100100000001111010101010 /
#553500
0.
06
b0 Z
b0 [
#555000
1$
1'
b0 K
#559000
0%
0(
#560000
0$
0'
#565000
1$
1'
b0 J
b0 =
b0 M
#565500
1%
1(
#566500
1.
16
b1 Z
b1 [
#570000
0$
0'
#572000
0%
0(
#575000
1$
1'
#578500
1%
1(
b1 W
b1 X
b1000001000011110110011010100000100101100011001010100001011110100 d
b10 Z
b11 [
b1000001000011110110011010100000100101100011001010100001011110100 8
b1 ?
b1 A
b1 a
b1 I
b1000001000011110110011010100000100101100011001010100001011110100 /
#579500
0.
06
b1 Z
b1 [
#580000
0$
0'
#585000
0%
1$
1'
0(
b1 K
#590000
0$
0'
#591500
1%
1(
#592500
1.
16
b10 Z
b11 [
#595000
1$
1'
b1 J
b1 =
b1 M
#598000
0%
0(
#600000
0$
0'
#604500
1%
1(
b10 W
b11 X
b11010010000100101011010110101100111110001001110101110010000001 d
b11 Z
b10 [
b11010010000100101011010110101100111110001001110101110010000001 8
b11 ?
b10 A
b10 a
b11 I
b11010010000100101011010110101100111110001001110101110010000001 /
#605000
1$
1'
b11 K
#605500
0.
06
b10 Z
b11 [
#610000
0$
0'
#611000
0%
0(
#615000
1$
1'
b11 J
b11 =
b11 M
#617500
1%
1(
#618500
1.
16
b11 Z
b10 [
#620000
0$
0'
#624000
0%
0(
#625000
1$
1'
#630000
0$
0'
#630500
1%
1(
b11 W
b10 X
b110100000100101010011100100111111110110011101010001001010011000 d
b100 Z
b110 [
1\
b110100000100101010011100100111111110110011101010001001010011000 8
b10 ?
b11 A
b11 a
b10 I
b110100000100101010011100100111111110110011101010001001010011000 /
#631500
0.
06
b11 Z
b10 [
0\
#635000
1$
1'
b10 K
#637000
0%
0(
#640000
0$
0'
#643500
1%
1(
#644500
1.
16
b100 Z
b110 [
1\
#645000
1$
1'
b10 J
b10 =
b10 M
#650000
0%
0$
0'
0(
#655000
1$
1'
#656500
1%
1(
1Y
b100 W
b110 X
b1110100101000111101010100011111110010110100110101000011101001001 d
b1110100101000111101010100011111110010110100110101000011101001001 8
b110 ?
b100 A
1:
1c
b100 a
b110 I
10
b1110100101000111101010100011111110010110100110101000011101001001 /
#657500
0.
06
#660000
0$
0'
#663000
0%
0(
#665000
1$
1'
b110 K
#669500
1%
1(
#670000
0$
0'
#675000
1$
1'
b110 J
b110 =
b110 M
